826544 678502 504
389230 656103 509
873637 767483 525
873201 238577 525
756532 695292 504
679175 702375 442
742895 336877 509
172997 386648 443
247409 684164 509
358337 614011 470
882697 749799 525
210690 246108 443
845086 122702 525
304784 77368 443
433962 126574 449
378395 880966 525
174574 314305 443
527556 217961 470
924289 892857 476
248443 259147 363
815768 750880 468
1651 463608 449
150810 756328 509
239222 739883 509
102696 961910 525
969509 44558 525
892349 212568 525
503316 257038 449
890715 369694 525
671510 632875 442
510684 831029 509
751710 665043 504
115954 83601 354
939753 604415 525
8566 761139 509
1296 814165 509
144972 409972 443
288563 405032 441
77976 908988 525
609766 730393 509
8591 82524 351
96391 597168 470
724741 244350 509
611487 840618 525
617817 684102 509
477473 152990 449
569780 669351 509
229755 629335 509
869535 514014 525
861675 522876 525
522793 802076 509
153154 756512 509
201622 489566 449
63021 295823 443
523897 595648 452
243557 501787 449
548847 504495 470
679565 279884 509
948120 489262 525
862166 255310 525
181932 236961 443
600605 64853 470
514689 773634 509
423844 508018 444
731574 582814 509
683590 454347 509
292951 248101 407
548850 535873 452
759468 478529 509
628184 873790 525
80331 600326 470
610583 951802 525
624767 406536 470
558955 663376 509
747736 39297 509
340088 130962 443
901364 58067 525
49371 93135 351
454333 968939 525
67176 984766 525
7715 511472 449
53149 589717 470
637646 959203 525
262380 684446 509
804825 862643 525
377380 90530 443
978628 349432 525
607795 182658 470
527917 94970 470
542758 167706 470
520560 437227 470
75788 504833 449
831510 64251 509
152958 627681 509
216361 709972 509
303661 74687 443
958294 738054 525
33332 29583 285
550856 261059 470
653086 742559 504
688972 78940 509
744387 25010 509
139858 391469 443
488068 373665 449
467353 590063 470
887699 212538 525
168157 693314 509
477627 205498 449
216863 67331 386
601355 37406 470
868594 779700 525
73833 309820 443
331647 264972 407
899920 432346 525
610217 618931 447
576823 90953 470
596506 754826 509
705783 761416 424
757896 412264 509
254212 174858 443
633207 750989 504
524986 868730 525
678534 584534 509
224118 245264 443
451436 628958 509
755257 159379 509
823089 791594 468
273879 293141 389
948564 642489 525
160457 797563 509
805958 518128 509
581766 126308 470
639866 945760 525
757036 708536 424
49075 140837 354
453302 467754 444
886147 254935 525
191535 534287 470
700754 661843 442
556004 782863 509
215715 573839 470
651458 827848 504
938290 840052 476
52908 708623 509
642761 77996 509
661744 388831 509
468225 465214 413
872457 245919 525
897088 90537 525
528689 836710 509
55117 152722 375
760636 353555 509
907586 332168 525
856798 407301 525
147543 479444 449
462166 554152 470
831306 339543 509
416837 915736 525
588265 594048 403
767240 479599 509
772149 941872 525
307775 81817 443
283502 143442 443
954446 775385 525
11616 43876 324
945578 933321 507
334089 183192 443
424801 11184 449
509072 20619 449
608903 713581 509
941028 763024 525
68077 646674 509
849845 688607 525
796374 280890 509
3349 67713 340
707049 186899 509
827899 690688 504
34106 77246 351
719199 237787 509
943867 684310 525
520637 242652 470
939960 388062 525
524499 18385 470
92176 426175 449
391224 168235 443
838115 204773 525
540611 799223 509
265925 59334 443
380105 124721 443
795116 971258 525
659520 700091 442
304404 459951 449
521841 606030 452
18222 672688 509
954649 675553 525
140037 740267 509
55156 977910 525
827818 491758 509
528639 804255 509
607243 636925 509
29863 855034 525
434855 746994 509
144836 674368 509
114883 881066 525
887397 47070 525
345751 162255 443
950174 130329 525
829017 984103 525
463683 982056 525
845859 507559 525
496859 459482 444
333238 69098 443
415729 758657 509
714805 336294 509
344236 56690 443
499033 527811 470
84910 864310 525
808250 918479 525
469781 46053 449
501352 660350 509
104380 871575 525
850297 455141 525
570020 134664 470
718849 127976 509
223265 961701 525
566086 418789 470
992032 574621 525
177288 792535 509
531836 716074 509
575126 492259 470
505751 892002 525
34922 471346 449
893764 80110 525
661959 186592 509
492118 629651 509
646306 873964 525
706958 265208 509
226727 423317 449
984959 71533 525
26640 439027 449
22854 486501 449
238943 141289 443
89670 808537 509
32737 780492 509
449874 588772 470
175173 206020 365
320486 399200 441
329669 66746 443
510554 939255 525
754534 483724 509
