1 10 20
100 200 125
201 210 89
900 1000 174
13 13 10
13 14 18
14 13 18
13 22 21
339873 150039 443
136130 71321 354
741774 547318 509
951229 489708 525
547332 552561 377
940680 869244 507
695673 621070 509
602324 747098 509
512927 495385 470
679456 152552 509
151002 813003 509
683732 967667 525
751241 939911 525
766414 205234 509
847810 580724 525
355614 639535 509
652019 141024 509
728079 470468 509
581017 925835 525
328646 991141 525
789363 450994 509
608634 905061 525
750865 910415 525
221890 424730 449
595433 533768 452
52724 422146 449
434569 470921 444
877374 27996 525
792808 188071 509
377725 602310 470
613905 968012 525
541982 772983 509
234251 573615 470
826394 240853 509
939276 391272 525
15077 128683 354
85697 736564 509
82672 925232 525
349832 2062 443
674457 529870 509
623613 184389 470
775191 85790 509
886302 367977 525
120997 611302 470
956973 441544 525
690228 233591 509
328033 283147 389
601562 7874 470
775685 809251 468
862505 538034 525
851069 775268 525
85397 218443 386
126976 357156 443
387514 36854 443
568485 277442 470
289687 191015 443
393189 890968 525
475252 709455 509
911919 867798 476
104143 210503 383
672577 881787 525
990102 705889 525
191994 63371 383
365157 893795 525
355693 901454 525
726436 54741 509
908280 443126 525
897407 495178 525
92896 787310 509
962317 20362 525
287008 301924 389
926815 518216 525
409803 21272 443
94741 397436 443
695153 295672 509
934145 257421 525
210792 237064 443
779016 912322 525
402875 750542 509
753422 175615 509
655781 15124 509
403339 583676 470
504787 329101 449
586901 970548 525
314412 233986 407
851682 77353 525
613748 177570 470
268250 394377 441
615932 528282 452
189048 472751 449
39372 734210 509
68920 743731 509
307522 185145 443
627546 451896 509
115735 423124 449
984382 834340 525
235632 79349 443
936937 253809 525
506189 388774 449
566023 738701 509
757833 437629 509
765062 67067 509
541097 936446 525
238414 739960 509
214826 12868 383
135349 418236 449
392744 145673 443
921658 595676 525
234488 438572 449
753711 332893 509
694980 518476 509
355403 686882 509
173756 666622 509
381434 837598 509
371418 904592 525
866983 466444 525
249630 745231 509
668722 752997 504
307658 407342 441
166308 823015 509
275326 627911 509
987911 841134 507
381805 153526 443
887760 843817 445
877556 504233 525
50423 463997 449
902560 775138 525
494801 13859 449
635564 147468 509
709361 814161 468
512511 419880 470
462529 200010 449
160360 127866 383
645459 363189 509
468156 853074 525
649298 228054 509
703712 955894 525
241104 607205 470
784350 509680 509
327446 821187 509
243975 366169 441
195872 87111 383
370359 151942 443
948886 710073 525
176030 147652 383
301622 270903 389
119032 913284 525
93177 367352 443
41872 551350 470
534537 800803 509
728885 569383 509
904085 879562 445
64781 554070 470
353117 883255 525
301157 943660 525
343826 372609 441
598208 403172 470
338850 417214 449
208543 556394 470
332958 378659 441
56596 901775 525
94984 873956 525
823862 313715 509
849173 468968 525
988396 58082 525
162276 570515 470
208836 52853 383
784617 922791 525
322612 888974 525
713153 464256 509
849228 655038 525
229112 224769 368
555965 460355 470
190436 324170 443
810296 220056 509
888791 666199 525
968122 762254 525
161460 601020 470
125788 131247 344
48296 199402 383
492052 237969 449
870111 589970 525
323731 15711 443
819327 710899 468
129177 544456 470
534336 733272 509
818810 511524 509
957278 241910 525
37738 299155 443
580242 90666 470
38041 605519 470
444159 168392 449
566088 971959 525
448539 431078 400
314251 825329 509
473150 915835 525
680575 139273 509
542904 423936 470
728394 456163 509
809041 840 509
651781 524556 509
464679 762216 509
140135 825553 509
579923 24433 470
344672 759766 509
469558 550769 470
356717 778311 509
896111 928993 476
199442 178862 365
694372 803296 504
200250 919753 525
