1 10 20
100 200 125
201 210 89
900 1000 174
247355 418230 449
467313 709647 509
925933 278445 525
633731 299459 509
640132 285858 509
708207 80822 509
237790 770966 509
654621 295611 509
707844 478338 509
955257 640075 525
830060 384756 509
943589 65419 525
357743 731599 509
704008 653003 442
51750 542045 470
317352 106485 443
754748 242242 509
807859 695050 504
758018 468974 509
408349 250804 441
411043 838390 525
731797 158939 509
669516 615250 509
712910 439487 509
216100 683125 509
913006 717146 525
464795 319240 449
217946 767225 509
855060 931527 476
883780 309871 525
409609 460855 449
859609 235964 525
754942 436142 509
838462 121769 525
378608 411445 449
85147 678853 509
450125 224164 449
630313 787472 504
51326 605442 470
581490 848067 525
532599 587566 452
542362 968726 525
685248 808023 504
789053 856160 525
613664 71803 470
488546 173946 449
203339 485927 449
937750 524445 525
91408 831763 509
568691 670615 509
37400 527490 470
339908 193252 443
208121 151703 383
780900 504913 509
512814 60501 470
106336 316863 443
528546 715220 509
906691 876965 445
749115 194045 509
187705 877758 525
356201 751472 509
646844 320238 509
981492 50344 525
385585 331509 441
36467 740983 509
548978 123084 470
856215 945407 507
610451 992152 525
337435 537535 470
523633 208379 470
340668 265219 407
483139 885027 525
97468 418137 449
868976 497342 525
73464 30736 340
186793 123075 383
457474 52725 449
881400 960082 507
151879 376984 443
159707 838402 525
583328 516712 452
104062 82602 341
298162 973962 525
969631 206548 525
462452 716586 509
615713 263847 470
1797 91462 351
254846 790116 509
405131 769819 509
93742 397511 443
839644 612165 525
341399 432985 449
374804 494969 449
403801 818792 509
322321 371089 441
149868 324999 443
172097 397481 443
608484 670193 509
274128 201246 443
673019 15615 509
508633 218139 449
893562 290960 525
241466 818941 509
905698 175235 525
578858 468978 470
155052 500045 449
899774 491175 525
929580 805762 525
501525 634485 509
762143 839218 525
428373 145914 449
48103 52570 340
160790 571343 470
817078 749533 468
495439 632292 509
520165 306259 470
769186 766336 468
157373 570214 470
967873 474092 525
657211 317894 509
159837 599804 470
766871 377487 509
494935 154897 449
833015 688521 504
126800 754310 509
884548 476468 525
895367 404905 525
918043 844084 476
833440 468564 509
971813 970020 458
13030 696383 509
558963 357314 470
801911 908215 525
743123 831968 468
738293 495397 509
460428 189569 449
923283 746486 525
484638 705478 509
87347 472970 449
94859 976006 525
606267 834037 509
808286 914954 525
335536 578435 470
219772 648264 509
233417 609852 470
295277 596163 470
803684 404473 509
596318 212979 470
219687 465272 449
692700 8325 509
776649 9230 509
151427 687032 509
576190 534634 452
827624 717110 468
858015 374474 525
265465 149964 443
763697 476306 509
767564 676759 504
477782 2332 449
635960 932320 525
784006 882338 525
193801 90334 383
402186 347162 436
26927 192692 383
846458 916885 476
722242 663905 504
376997 385113 379
863877 354608 525
843184 158109 525
296417 595462 470
991664 294231 525
116602 172713 383
526213 879879 525
77474 468498 449
98735 211616 383
319445 892369 525
823305 380267 509
216376 264897 443
834745 613878 509
205284 763361 509
339309 183724 443
629914 268245 509
304141 899615 525
250902 73043 443
77635 63761 351
188297 405142 443
543863 178319 470
50696 397576 443
734708 958841 525
712514 224760 509
428749 735986 509
491526 215943 449
88113 122379 354
907090 320954 525
502505 874569 525
219297 672172 509
626176 284844 470
994894 532126 525
921247 760879 525
610045 296144 470
301412 199920 443
700744 855984 525
921973 457924 525
618431 214190 470
815067 159046 509
835048 731808 468
176562 396784 443
444631 191539 449
754154 334913 509
183999 955826 525
139509 236407 443
497575 330329 449
413551 842348 525
422841 100772 449
624655 9564 470
539344 48378 470
961701 563639 525
751897 251697 509
782460 377766 509
435084 791928 509
983333 879299 507
960312 992397 458
920685 943528 507
58739 855100 525
932974 701405 525
400529 384913 436
844486 250665 525
119757 787597 509
483127 522737 470
453021 347194 449
644146 269862 509
301771 304629 340
61067 152781 375
240569 810275 509
622998 264993 470
518337 488313 470
54002 392941 443
874902 18640 525
868940 642644 525
52760 859464 525
605639 498811 470
498805 662918 509
642786 2711 509
674599 289839 509
367796 398400 436
245671 447370 449
369949 152749 443
268205 386019 441
812597 367218 509
341003 555718 470
